%YAML 1.1
%TAG !u! tag:unity3d.com,2011:
--- !u!74 &7400000
AnimationClip:
  m_ObjectHideFlags: 0
  m_PrefabParentObject: {fileID: 0}
  m_PrefabInternal: {fileID: 0}
  m_Name: archer.attack
  serializedVersion: 6
  m_Legacy: 0
  m_Compressed: 0
  m_UseHighQualityCurve: 1
  m_RotationCurves: []
  m_CompressedRotationCurves: []
  m_EulerCurves: []
  m_PositionCurves: []
  m_ScaleCurves: []
  m_FloatCurves: []
  m_PPtrCurves:
  - curve:
    - time: 0
      value: {fileID: 21300000, guid: ae54978afcb294023914cf197d02b8c4, type: 3}
    - time: 0.083333336
      value: {fileID: 21300000, guid: fb8a28ea781314752b3bd40e7ee12743, type: 3}
    - time: 0.16666667
      value: {fileID: 21300000, guid: 736ce0a7d530e479d90520b8432d7e97, type: 3}
    - time: 0.25
      value: {fileID: 21300000, guid: b4239f646f8404d80905cb2614863b7e, type: 3}
    - time: 0.33333334
      value: {fileID: 21300000, guid: 42a889c2c28ad4fe1a3562fa86950699, type: 3}
    - time: 0.41666666
      value: {fileID: 21300000, guid: 33a9d5c71e40d4f7bb4e256674f67892, type: 3}
    - time: 0.5
      value: {fileID: 21300000, guid: 13b9512f163fb479b907f001efc9d0b2, type: 3}
    - time: 0.5833333
      value: {fileID: 21300000, guid: 17d590318ec7c4267ac0d4097110d848, type: 3}
    - time: 0.6666667
      value: {fileID: 21300000, guid: d6109c5a70f224deda3dc4dfce367e77, type: 3}
    - time: 0.75
      value: {fileID: 21300000, guid: ad2f4fe099b574cc58d350c0dfa1524f, type: 3}
    - time: 0.8333333
      value: {fileID: 21300000, guid: bf7ba44192f8048e3a47c055428698a4, type: 3}
    - time: 0.9166667
      value: {fileID: 21300000, guid: a42badc66e82a4b2e85607d7d20d6846, type: 3}
    - time: 1
      value: {fileID: 21300000, guid: ab1aa249a5ed344ba8cb164e758d1a94, type: 3}
    - time: 1.0833334
      value: {fileID: 21300000, guid: f3a6f8885c20f45e9848f9e8c577a04f, type: 3}
    - time: 1.1666666
      value: {fileID: 21300000, guid: 55db2c6deeb2845aa9884cd9d7b80b63, type: 3}
    - time: 1.25
      value: {fileID: 21300000, guid: ad42477dddf3748f59dc9670e866fb24, type: 3}
    attribute: m_Sprite
    path: 
    classID: 212
    script: {fileID: 0}
  m_SampleRate: 12
  m_WrapMode: 0
  m_Bounds:
    m_Center: {x: 0, y: 0, z: 0}
    m_Extent: {x: 0, y: 0, z: 0}
  m_ClipBindingConstant:
    genericBindings:
    - path: 0
      attribute: 0
      script: {fileID: 0}
      classID: 212
      customType: 23
      isPPtrCurve: 1
    pptrCurveMapping:
    - {fileID: 21300000, guid: ae54978afcb294023914cf197d02b8c4, type: 3}
    - {fileID: 21300000, guid: fb8a28ea781314752b3bd40e7ee12743, type: 3}
    - {fileID: 21300000, guid: 736ce0a7d530e479d90520b8432d7e97, type: 3}
    - {fileID: 21300000, guid: b4239f646f8404d80905cb2614863b7e, type: 3}
    - {fileID: 21300000, guid: 42a889c2c28ad4fe1a3562fa86950699, type: 3}
    - {fileID: 21300000, guid: 33a9d5c71e40d4f7bb4e256674f67892, type: 3}
    - {fileID: 21300000, guid: 13b9512f163fb479b907f001efc9d0b2, type: 3}
    - {fileID: 21300000, guid: 17d590318ec7c4267ac0d4097110d848, type: 3}
    - {fileID: 21300000, guid: d6109c5a70f224deda3dc4dfce367e77, type: 3}
    - {fileID: 21300000, guid: ad2f4fe099b574cc58d350c0dfa1524f, type: 3}
    - {fileID: 21300000, guid: bf7ba44192f8048e3a47c055428698a4, type: 3}
    - {fileID: 21300000, guid: a42badc66e82a4b2e85607d7d20d6846, type: 3}
    - {fileID: 21300000, guid: ab1aa249a5ed344ba8cb164e758d1a94, type: 3}
    - {fileID: 21300000, guid: f3a6f8885c20f45e9848f9e8c577a04f, type: 3}
    - {fileID: 21300000, guid: 55db2c6deeb2845aa9884cd9d7b80b63, type: 3}
    - {fileID: 21300000, guid: ad42477dddf3748f59dc9670e866fb24, type: 3}
  m_AnimationClipSettings:
    serializedVersion: 2
    m_AdditiveReferencePoseClip: {fileID: 0}
    m_AdditiveReferencePoseTime: 0
    m_StartTime: 0
    m_StopTime: 1.3333334
    m_OrientationOffsetY: 0
    m_Level: 0
    m_CycleOffset: 0
    m_HasAdditiveReferencePose: 0
    m_LoopTime: 1
    m_LoopBlend: 0
    m_LoopBlendOrientation: 0
    m_LoopBlendPositionY: 0
    m_LoopBlendPositionXZ: 0
    m_KeepOriginalOrientation: 0
    m_KeepOriginalPositionY: 1
    m_KeepOriginalPositionXZ: 0
    m_HeightFromFeet: 0
    m_Mirror: 0
  m_EditorCurves: []
  m_EulerEditorCurves: []
  m_HasGenericRootTransform: 0
  m_HasMotionFloatCurves: 0
  m_GenerateMotionCurves: 0
  m_Events: []
